…
Q4. What are the five richest countries in the world in
2007?

``` r
gapminder %>% filter(year==2007) %>% group_by(country) %>% summarise(gdpPercap) %>%  arrange(desc(gdpPercap), desc(country))
```

    ## `summarise()` ungrouping output (override with `.groups` argument)

    ## # A tibble: 142 x 2
    ##    country          gdpPercap
    ##    <fct>                <dbl>
    ##  1 Norway              49357.
    ##  2 Kuwait              47307.
    ##  3 Singapore           47143.
    ##  4 United States       42952.
    ##  5 Ireland             40676.
    ##  6 Hong Kong, China    39725.
    ##  7 Switzerland         37506.
    ##  8 Netherlands         36798.
    ##  9 Canada              36319.
    ## 10 Iceland             36181.
    ## # ... with 132 more rows
…
